<?xml version="1.0" encoding="utf-8"?>
<!-- Generator: Adobe Illustrator 22.0.0, SVG Export Plug-In . SVG Version: 6.00 Build 0)  -->
<svg version="1.1" id="Layer_1" xmlns="http://www.w3.org/2000/svg" xmlns:xlink="http://www.w3.org/1999/xlink" x="0px" y="0px"
	 viewBox="0 0 64 64" style="enable-background:new 0 0 64 64;" xml:space="preserve">
<g>
	<path d="M61.6,0l-40,6.7C10.4,8.4,3.4,12.3,1,18.1C-1.8,24.6,2.2,31,3.5,32.8C4.8,34.7,6,35.9,6.1,36l2.7,2.5
		c-9,12.6-7.5,23.2-7.3,23.9c0.2,1,1,1.7,2,1.7c0.1,0,0.2,0,0.3,0c1.1-0.2,1.8-1.2,1.7-2.3C5.3,61,4,51.3,12.8,39.7
		c0.1-0.1,0.1-0.1,0.2-0.2c0.1-0.1,0.2-0.3,0.3-0.5c5.5-7,14.6-14.6,29.8-21.3c1-0.5,1.5-1.7,1-2.7s-1.6-1.5-2.7-1
		c-14.9,6.6-24.3,14.1-30.2,21.2L8.8,33c0,0-1-1-2.1-2.5c-1-1.4-4-6.2-2.1-10.8c1.8-4.4,7.9-7.4,17.6-8.9l37.4-6.3
		c-0.8,6.9-4.6,26.3-20.5,38.4c0.1,0,0,0.1-0.1,0.1c-0.3,0.3-8.6,8.3-20.2-1.5c-0.9-0.7-2.1-0.6-2.9,0.2c-0.7,0.9-0.6,2.1,0.2,2.9
		c5.2,4.4,10,5.8,13.9,5.8c6.4,0,10.8-3.7,11.6-4.4C62.7,30,64,3.2,64,2.1c0-0.6-0.2-1.2-0.7-1.6C62.9,0.1,62.2-0.1,61.6,0z"/>
</g>
</svg>
